{
  "local": {
    "EnvironmentConfig": {
      "api": "https://thawing-cliffs-62013.herokuapp.com/api"
    }
  },
  "development": {
    "EnvironmentConfig": {
      "api": "https://api.development.com/api"
    }
  },
  "production": {
    "EnvironmentConfig": {
      "api": "https://api.production.com/api"
    }
  }
}
